-------------------------------------------------------------------------------
Test set: fr.emiage.sorttab.SortTabTest
-------------------------------------------------------------------------------
Tests run: 6, Failures: 0, Errors: 0, Skipped: 0, Time elapsed: 0.163 sec
